{
   "abstract" : "Cryptographic toolkit",
   "author" : [
      "Karel Miko"
   ],
   "dynamic_config" : 0,
   "generated_by" : "ExtUtils::MakeMaker version 7.62, CPAN::Meta::Converter version 2.150010, CPAN::Meta::Converter version 2.150005",
   "license" : [
      "perl_5"
   ],
   "meta-spec" : {
      "url" : "http://search.cpan.org/perldoc?CPAN::Meta::Spec",
      "version" : "2"
   },
   "name" : "CryptX",
   "no_index" : {
      "directory" : [
         "t",
         "inc"
      ]
   },
   "prereqs" : {
      "build" : {
         "requires" : {
            "ExtUtils::MakeMaker" : "0"
         }
      },
      "configure" : {
         "requires" : {
            "ExtUtils::MakeMaker" : "0"
         }
      },
      "runtime" : {
         "requires" : {
            "Math::BigInt" : "0",
            "perl" : "5.006"
         }
      },
      "test" : {
         "requires" : {
            "Test::More" : "0"
         }
      }
   },
   "release_status" : "stable",
   "resources" : {
      "bugtracker" : {
         "web" : "https://github.com/DCIT/perl-CryptX/issues"
      },
      "repository" : {
         "url" : "https://github.com/DCIT/perl-CryptX"
      }
   },
   "version" : "0.074",
   "x_serialization_backend" : "JSON::PP version 2.27300"
}
