{
   "abstract" : "I/O on in-core objects like strings and arrays",
   "author" : [
      "Erik Dorfman <eryq@cpan.org>"
   ],
   "dynamic_config" : 0,
   "generated_by" : "Dist::Zilla version 6.012, CPAN::Meta::Converter version 2.150010, CPAN::Meta::Converter version 2.150005",
   "license" : [
      "perl_5"
   ],
   "meta-spec" : {
      "url" : "http://search.cpan.org/perldoc?CPAN::Meta::Spec",
      "version" : "2"
   },
   "name" : "IO-Stringy",
   "no_index" : {
      "directory" : [
         "eg",
         "examples",
         "inc",
         "share",
         "t",
         "xt"
      ]
   },
   "prereqs" : {
      "build" : {
         "requires" : {
            "ExtUtils::MakeMaker" : "0"
         }
      },
      "configure" : {
         "requires" : {
            "ExtUtils::MakeMaker" : "0"
         }
      },
      "develop" : {
         "requires" : {
            "Dist::Zilla" : "0",
            "File::Spec" : "0",
            "IO::Handle" : "0",
            "IPC::Open3" : "0",
            "Pod::Coverage::TrustPod" : "0",
            "Test::CPAN::Changes" : "0.4",
            "Test::CheckManifest" : "1.29",
            "Test::Kwalitee" : "1.22",
            "Test::More" : "0.88",
            "Test::Pod" : "1.41",
            "Test::Pod::Coverage" : "1.08",
            "Test::Pod::Spelling::CommonMistakes" : "1.000",
            "Test::Spelling" : "0.12",
            "Test::TrailingSpace" : "0",
            "Test::Version" : "1"
         }
      },
      "runtime" : {
         "requires" : {
            "Carp" : "0",
            "Exporter" : "5.57",
            "File::Spec" : "0",
            "FileHandle" : "0",
            "IO::File" : "0",
            "IO::Handle" : "0",
            "Symbol" : "0",
            "overload" : "0",
            "parent" : "0",
            "strict" : "0",
            "warnings" : "0"
         }
      },
      "test" : {
         "recommends" : {
            "CPAN::Meta" : "2.120900"
         },
         "requires" : {
            "ExtUtils::MakeMaker" : "0",
            "File::Basename" : "0",
            "File::Spec" : "0",
            "File::Temp" : "0",
            "FileHandle" : "0",
            "IO::File" : "0",
            "IO::Handle" : "0",
            "Symbol" : "0",
            "Test::More" : "0.88",
            "Test::Tester" : "0",
            "strict" : "0",
            "warnings" : "0"
         }
      }
   },
   "provides" : {
      "IO::AtomicFile" : {
         "file" : "lib/IO/AtomicFile.pm",
         "version" : "2.113"
      },
      "IO::InnerFile" : {
         "file" : "lib/IO/InnerFile.pm",
         "version" : "2.113"
      },
      "IO::Lines" : {
         "file" : "lib/IO/Lines.pm",
         "version" : "2.113"
      },
      "IO::Scalar" : {
         "file" : "lib/IO/Scalar.pm",
         "version" : "2.113"
      },
      "IO::ScalarArray" : {
         "file" : "lib/IO/ScalarArray.pm",
         "version" : "2.113"
      },
      "IO::Stringy" : {
         "file" : "lib/IO/Stringy.pm",
         "version" : "2.113"
      },
      "IO::Wrap" : {
         "file" : "lib/IO/Wrap.pm",
         "version" : "2.113"
      },
      "IO::WrapTie" : {
         "file" : "lib/IO/WrapTie.pm",
         "version" : "2.113"
      }
   },
   "release_status" : "stable",
   "resources" : {
      "bugtracker" : {
         "web" : "https://github.com/genio/IO-Stringy/issues"
      },
      "homepage" : "https://github.com/genio/IO-Stringy",
      "repository" : {
         "type" : "git",
         "url" : "https://github.com/genio/IO-Stringy.git",
         "web" : "https://github.com/genio/IO-Stringy"
      }
   },
   "version" : "2.113",
   "x_Dist_Zilla" : {
      "perl" : {
         "version" : "5.030000"
      },
      "plugins" : [
         {
            "class" : "Dist::Zilla::Plugin::Git::GatherDir",
            "config" : {
               "Dist::Zilla::Plugin::GatherDir" : {
                  "exclude_filename" : [
                     "LICENSE",
                     "META.json",
                     "Makefile.PL",
                     "README.md",
                     "t/00-report-prereqs.t"
                  ],
                  "exclude_match" : [],
                  "follow_symlinks" : 0,
                  "include_dotfiles" : 0,
                  "prefix" : "",
                  "prune_directory" : [],
                  "root" : "."
               },
               "Dist::Zilla::Plugin::Git::GatherDir" : {
                  "include_untracked" : 0
               }
            },
            "name" : "Git::GatherDir",
            "version" : "2.046"
         },
         {
            "class" : "Dist::Zilla::Plugin::MetaYAML",
            "name" : "@Starter/MetaYAML",
            "version" : "6.012"
         },
         {
            "class" : "Dist::Zilla::Plugin::MetaJSON",
            "name" : "@Starter/MetaJSON",
            "version" : "6.012"
         },
         {
            "class" : "Dist::Zilla::Plugin::License",
            "name" : "@Starter/License",
            "version" : "6.012"
         },
         {
            "class" : "Dist::Zilla::Plugin::Pod2Readme",
            "name" : "@Starter/Pod2Readme",
            "version" : "0.004"
         },
         {
            "class" : "Dist::Zilla::Plugin::PodSyntaxTests",
            "name" : "@Starter/PodSyntaxTests",
            "version" : "6.012"
         },
         {
            "class" : "Dist::Zilla::Plugin::Test::ReportPrereqs",
            "name" : "@Starter/Test::ReportPrereqs",
            "version" : "0.027"
         },
         {
            "class" : "Dist::Zilla::Plugin::Test::Compile",
            "config" : {
               "Dist::Zilla::Plugin::Test::Compile" : {
                  "bail_out_on_fail" : 0,
                  "fail_on_warning" : "author",
                  "fake_home" : 0,
                  "filename" : "xt/author/00-compile.t",
                  "module_finder" : [
                     ":InstallModules"
                  ],
                  "needs_display" : 0,
                  "phase" : "develop",
                  "script_finder" : [
                     ":PerlExecFiles"
                  ],
                  "skips" : [],
                  "switch" : []
               }
            },
            "name" : "@Starter/Test::Compile",
            "version" : "2.058"
         },
         {
            "class" : "Dist::Zilla::Plugin::MakeMaker::Awesome",
            "config" : {
               "Dist::Zilla::Plugin::MakeMaker" : {
                  "make_path" : "gmake",
                  "version" : "6.012"
               },
               "Dist::Zilla::Role::TestRunner" : {
                  "default_jobs" : 1,
                  "version" : "6.012"
               }
            },
            "name" : "@Starter/MakeMaker::Awesome",
            "version" : "0.48"
         },
         {
            "class" : "Dist::Zilla::Plugin::Manifest",
            "name" : "@Starter/Manifest",
            "version" : "6.012"
         },
         {
            "class" : "Dist::Zilla::Plugin::PruneCruft",
            "name" : "@Starter/PruneCruft",
            "version" : "6.012"
         },
         {
            "class" : "Dist::Zilla::Plugin::ManifestSkip",
            "name" : "@Starter/ManifestSkip",
            "version" : "6.012"
         },
         {
            "class" : "Dist::Zilla::Plugin::RunExtraTests",
            "config" : {
               "Dist::Zilla::Role::TestRunner" : {
                  "default_jobs" : 1
               }
            },
            "name" : "@Starter/RunExtraTests",
            "version" : "0.029"
         },
         {
            "class" : "Dist::Zilla::Plugin::RewriteVersion",
            "config" : {
               "Dist::Zilla::Plugin::RewriteVersion" : {
                  "add_tarball_name" : 0,
                  "finders" : [
                     ":ExecFiles",
                     ":InstallModules"
                  ],
                  "global" : 1,
                  "skip_version_provider" : 0
               }
            },
            "name" : "@Starter/RewriteVersion",
            "version" : "0.018"
         },
         {
            "class" : "Dist::Zilla::Plugin::NextRelease",
            "name" : "@Starter/NextRelease",
            "version" : "6.012"
         },
         {
            "class" : "Dist::Zilla::Plugin::BumpVersionAfterRelease",
            "config" : {
               "Dist::Zilla::Plugin::BumpVersionAfterRelease" : {
                  "finders" : [
                     ":ExecFiles",
                     ":InstallModules"
                  ],
                  "global" : 0,
                  "munge_makefile_pl" : 1
               }
            },
            "name" : "@Starter/BumpVersionAfterRelease",
            "version" : "0.018"
         },
         {
            "class" : "Dist::Zilla::Plugin::TestRelease",
            "name" : "@Starter/TestRelease",
            "version" : "6.012"
         },
         {
            "class" : "Dist::Zilla::Plugin::ConfirmRelease",
            "name" : "@Starter/ConfirmRelease",
            "version" : "6.012"
         },
         {
            "class" : "Dist::Zilla::Plugin::UploadToCPAN",
            "name" : "@Starter/UploadToCPAN",
            "version" : "6.012"
         },
         {
            "class" : "Dist::Zilla::Plugin::MetaConfig",
            "name" : "@Starter/MetaConfig",
            "version" : "6.012"
         },
         {
            "class" : "Dist::Zilla::Plugin::MetaNoIndex",
            "name" : "@Starter/MetaNoIndex",
            "version" : "6.012"
         },
         {
            "class" : "Dist::Zilla::Plugin::MetaProvides::Package",
            "config" : {
               "Dist::Zilla::Plugin::MetaProvides::Package" : {
                  "finder_objects" : [
                     {
                        "class" : "Dist::Zilla::Plugin::FinderCode",
                        "name" : "@Starter/MetaProvides::Package/AUTOVIV/:InstallModulesPM",
                        "version" : "6.012"
                     }
                  ],
                  "include_underscores" : 0
               },
               "Dist::Zilla::Role::MetaProvider::Provider" : {
                  "$Dist::Zilla::Role::MetaProvider::Provider::VERSION" : "2.002004",
                  "inherit_missing" : 1,
                  "inherit_version" : 1,
                  "meta_noindex" : 1
               },
               "Dist::Zilla::Role::ModuleMetadata" : {
                  "Module::Metadata" : "1.000036",
                  "version" : "0.006"
               }
            },
            "name" : "@Starter/MetaProvides::Package",
            "version" : "2.004003"
         },
         {
            "class" : "Dist::Zilla::Plugin::ShareDir",
            "name" : "@Starter/ShareDir",
            "version" : "6.012"
         },
         {
            "class" : "Dist::Zilla::Plugin::ExecDir",
            "name" : "@Starter/ExecDir",
            "version" : "6.012"
         },
         {
            "class" : "Dist::Zilla::Plugin::ReadmeAnyFromPod",
            "config" : {
               "Dist::Zilla::Role::FileWatcher" : {
                  "version" : "0.006"
               }
            },
            "name" : "Markdown_Readme",
            "version" : "0.163250"
         },
         {
            "class" : "Dist::Zilla::Plugin::Prereqs::FromCPANfile",
            "name" : "Prereqs::FromCPANfile",
            "version" : "0.08"
         },
         {
            "class" : "Dist::Zilla::Plugin::Git::Contributors",
            "config" : {
               "Dist::Zilla::Plugin::Git::Contributors" : {
                  "git_version" : "2.16.1.windows.1",
                  "include_authors" : 0,
                  "include_releaser" : 1,
                  "order_by" : "name",
                  "paths" : []
               }
            },
            "name" : "Git::Contributors",
            "version" : "0.035"
         },
         {
            "class" : "Dist::Zilla::Plugin::GithubMeta",
            "name" : "GithubMeta",
            "version" : "0.58"
         },
         {
            "class" : "Dist::Zilla::Plugin::Git::Check",
            "config" : {
               "Dist::Zilla::Plugin::Git::Check" : {
                  "untracked_files" : "die"
               },
               "Dist::Zilla::Role::Git::DirtyFiles" : {
                  "allow_dirty" : [
                     "Changes",
                     "dist.ini"
                  ],
                  "allow_dirty_match" : [],
                  "changelog" : "Changes"
               },
               "Dist::Zilla::Role::Git::Repo" : {
                  "git_version" : "2.16.1.windows.1",
                  "repo_root" : "."
               }
            },
            "name" : "@Git/Check",
            "version" : "2.046"
         },
         {
            "class" : "Dist::Zilla::Plugin::Git::Commit",
            "config" : {
               "Dist::Zilla::Plugin::Git::Commit" : {
                  "add_files_in" : [],
                  "commit_msg" : "v%V%n%n%c"
               },
               "Dist::Zilla::Role::Git::DirtyFiles" : {
                  "allow_dirty" : [
                     "Changes",
                     "dist.ini"
                  ],
                  "allow_dirty_match" : [],
                  "changelog" : "Changes"
               },
               "Dist::Zilla::Role::Git::Repo" : {
                  "git_version" : "2.16.1.windows.1",
                  "repo_root" : "."
               },
               "Dist::Zilla::Role::Git::StringFormatter" : {
                  "time_zone" : "local"
               }
            },
            "name" : "@Git/Commit",
            "version" : "2.046"
         },
         {
            "class" : "Dist::Zilla::Plugin::Git::Tag",
            "config" : {
               "Dist::Zilla::Plugin::Git::Tag" : {
                  "branch" : null,
                  "changelog" : "Changes",
                  "signed" : 0,
                  "tag" : "v2.113",
                  "tag_format" : "v%V",
                  "tag_message" : "v%V"
               },
               "Dist::Zilla::Role::Git::Repo" : {
                  "git_version" : "2.16.1.windows.1",
                  "repo_root" : "."
               },
               "Dist::Zilla::Role::Git::StringFormatter" : {
                  "time_zone" : "local"
               }
            },
            "name" : "@Git/Tag",
            "version" : "2.046"
         },
         {
            "class" : "Dist::Zilla::Plugin::Git::Push",
            "config" : {
               "Dist::Zilla::Plugin::Git::Push" : {
                  "push_to" : [
                     "origin"
                  ],
                  "remotes_must_exist" : 1
               },
               "Dist::Zilla::Role::Git::Repo" : {
                  "git_version" : "2.16.1.windows.1",
                  "repo_root" : "."
               }
            },
            "name" : "@Git/Push",
            "version" : "2.046"
         },
         {
            "class" : "Dist::Zilla::Plugin::CheckChangeLog",
            "name" : "CheckChangeLog",
            "version" : "0.05"
         },
         {
            "class" : "Dist::Zilla::Plugin::CheckChangesHasContent",
            "name" : "CheckChangesHasContent",
            "version" : "0.011"
         },
         {
            "class" : "Dist::Zilla::Plugin::Test::ChangesHasContent",
            "name" : "Test::ChangesHasContent",
            "version" : "0.011"
         },
         {
            "class" : "Dist::Zilla::Plugin::Test::Kwalitee",
            "config" : {
               "Dist::Zilla::Plugin::Test::Kwalitee" : {
                  "filename" : "xt/release/kwalitee.t",
                  "skiptest" : [
                     "no_symlinks"
                  ]
               }
            },
            "name" : "Test::Kwalitee",
            "version" : "2.12"
         },
         {
            "class" : "Dist::Zilla::Plugin::Test::Version",
            "name" : "Test::Version",
            "version" : "1.09"
         },
         {
            "class" : "Dist::Zilla::Plugin::Test::Pod::Coverage::Configurable",
            "name" : "Test::Pod::Coverage::Configurable",
            "version" : "0.07"
         },
         {
            "class" : "Dist::Zilla::Plugin::Test::PodSpelling",
            "config" : {
               "Dist::Zilla::Plugin::Test::PodSpelling" : {
                  "directories" : [
                     "bin",
                     "lib"
                  ],
                  "spell_cmd" : "",
                  "stopwords" : [
                     "BUF",
                     "Doru",
                     "FOO",
                     "Foo",
                     "NBYTES",
                     "POS",
                     "SCALARREF",
                     "SLAVECLASS",
                     "ZeeGee",
                     "aref",
                     "dfs",
                     "getline",
                     "getlines",
                     "getpos",
                     "ing",
                     "reblessed",
                     "setpos",
                     "sref",
                     "tieable",
                     "wraphandle"
                  ],
                  "wordlist" : "Pod::Wordlist"
               }
            },
            "name" : "Test::PodSpelling",
            "version" : "2.007005"
         },
         {
            "class" : "Dist::Zilla::Plugin::CopyFilesFromBuild",
            "name" : "CopyFilesFromBuild",
            "version" : "0.170880"
         },
         {
            "class" : "Dist::Zilla::Plugin::FinderCode",
            "name" : ":InstallModules",
            "version" : "6.012"
         },
         {
            "class" : "Dist::Zilla::Plugin::FinderCode",
            "name" : ":IncModules",
            "version" : "6.012"
         },
         {
            "class" : "Dist::Zilla::Plugin::FinderCode",
            "name" : ":TestFiles",
            "version" : "6.012"
         },
         {
            "class" : "Dist::Zilla::Plugin::FinderCode",
            "name" : ":ExtraTestFiles",
            "version" : "6.012"
         },
         {
            "class" : "Dist::Zilla::Plugin::FinderCode",
            "name" : ":ExecFiles",
            "version" : "6.012"
         },
         {
            "class" : "Dist::Zilla::Plugin::FinderCode",
            "name" : ":PerlExecFiles",
            "version" : "6.012"
         },
         {
            "class" : "Dist::Zilla::Plugin::FinderCode",
            "name" : ":ShareFiles",
            "version" : "6.012"
         },
         {
            "class" : "Dist::Zilla::Plugin::FinderCode",
            "name" : ":MainModule",
            "version" : "6.012"
         },
         {
            "class" : "Dist::Zilla::Plugin::FinderCode",
            "name" : ":AllFiles",
            "version" : "6.012"
         },
         {
            "class" : "Dist::Zilla::Plugin::FinderCode",
            "name" : ":NoFiles",
            "version" : "6.012"
         },
         {
            "class" : "Dist::Zilla::Plugin::FinderCode",
            "name" : "@Starter/MetaProvides::Package/AUTOVIV/:InstallModulesPM",
            "version" : "6.012"
         }
      ],
      "zilla" : {
         "class" : "Dist::Zilla::Dist::Builder",
         "config" : {
            "is_trial" : 0
         },
         "version" : "6.012"
      }
   },
   "x_contributors" : [
      "Chase Whitener <capoeirab@cpan.org>",
      "Dianne Skoll <dskoll@cpan.org>"
   ],
   "x_generated_by_perl" : "v5.30.0",
   "x_serialization_backend" : "JSON::PP version 2.27300"
}
